<?xml version="1.0" encoding="UTF-8"?>
<session version="1.0">
<refactoring accessors="true" comment="Delete element from project &apos;MSStoreShopping&apos;&#x0D;&#x0A;- Original project: &apos;MSStoreShopping&apos;&#x0D;&#x0A;- Original element: &apos;MSStoreShopping/src/main/java/com.example.store.shopping.swagger&apos;" description="Delete element" element1="/src\/main\/java=/optional=/true=/=/maven.pomderived=/true=/&lt;com.example.store.shopping.swagger" elements="1" flags="589830" id="org.eclipse.jdt.ui.delete" resources="0" stamp="1629408358914" subPackages="false" version="1.0"/>
</session>