<?xml version="1.0" encoding="UTF-8"?>
<session version="1.0">
<refactoring comment="Copy element &apos;CustomerHystrixFallbackFactory.java&apos; to &apos;MSStoreShopping/src/main/java/com.example.store.shopping.service.client&apos;&#x0D;&#x0A;- Original project: &apos;ms-course-youtube-05-hystrix&apos;&#x0D;&#x0A;- Destination element: &apos;MSStoreShopping/src/main/java/com.example.store.shopping.service.client&apos;&#x0D;&#x0A;- Original element: &apos;CustomerHystrixFallbackFactory.java&apos;" description="Copy file" destination="=MSStoreShopping/src\/main\/java=/optional=/true=/=/maven.pomderived=/true=/&lt;com.example.store.shopping.service.client" element1="shopping-service/src/main/java/academy/digitallab/store/shopping/client/CustomerHystrixFallbackFactory.java" files="1" flags="589830" folders="0" id="org.eclipse.jdt.ui.copy" policy="org.eclipse.jdt.ui.copyResources" stamp="1625257947689" units="0" version="1.0"/>
</session>