<?xml version="1.0" encoding="UTF-8"?>
<session version="1.0">
<refactoring comment="Copy element &apos;UtilJMS.java&apos; to &apos;EnviarJMSTest/src/pe.com.enviarjms.test.util&apos;&#x0D;&#x0A;- Original project: &apos;EnviarJMSTest&apos;&#x0D;&#x0A;- Destination element: &apos;EnviarJMSTest/src/pe.com.enviarjms.test.util&apos;&#x0D;&#x0A;- Original element: &apos;pe.com.enviarjms.test.util.UtilJMS.java&apos;" description="Copy compilation unit" destination="/src&lt;pe.com.enviarjms.test.util" element1="/src&lt;pe.com.enviarjms.test.util{UtilJMS.java" files="0" flags="589830" folders="0" id="org.eclipse.jdt.ui.copy" policy="org.eclipse.jdt.ui.copyResources" stamp="1532445931431" units="1" version="1.0"/>
</session>