<?xml version="1.0" encoding="UTF-8"?>
<session version="1.0">
<refactoring comment="Delete 2 resources" deleteContents="false" description="Delete 2 resources" element1="/demo-jwt" element2="/jwtDemo" flags="7" id="org.eclipse.ltk.core.refactoring.delete.resources" resources="2" stamp="1630700763287"/>
</session>